slides
…
``` r
library(sf)
lakes <- read_sf("https://raw.githubusercontent.com/krisrs1128/stat436_s23/main/data/GL_3basins_2015.topojson") |>
  filter(Sub_Basin == "Dudh Koshi")
lakes
```

```
## Simple feature collection with 349 features and 11 fields
## Geometry type: POLYGON
## Dimension:     XY
## Bounding box:  xmin: 86.52067 ymin: 27.60735 xmax: 86.98649 ymax: 28.07853
## CRS:           NA
## # A tibble: 349 × 12
##    id       Id Latitude Longitude GL_ID           Basin Sub_Basin    Area Elevation Type  Country
##  * <chr> <int>    <dbl>     <dbl> <chr>           <chr> <chr>       <dbl>     <int> <chr> <chr>  
##  1 90       NA     27.8      86.6 GL086621E27790N Koshi Dudh Koshi 0.458       5146 M(e)  Nepal  
##  2 91       NA     27.8      86.6 GL086612E27779N Koshi Dudh Koshi 1.22        4829 M(e)  Nepal  
##  3 92       NA     27.9      86.9 GL086925E27898N Koshi Dudh Koshi 1.34        5002 M(e)  Nepal  
##  4 93       NA     27.9      86.7 GL086746E27933N Koshi Dudh Koshi 0.0763      4954 M(e)  Nepal  
##  5 242      NA     27.8      86.6 GL086617E27795N Koshi Dudh Koshi 0.0142      5183 M(e)  Nepal  
##  6 243      NA     27.8      86.6 GL086643E27777N Koshi Dudh Koshi 0.296       5161 M(e)  Nepal  
##  7 244      NA     27.9      86.7 GL086710E27943N Koshi Dudh Koshi 0.0894      4709 I(s)  Nepal  
##  8 245      NA     27.9      86.7 GL086712E27936N Koshi Dudh Koshi 0.0176      4705 I(s)  Nepal  
##  9 246      NA     27.9      86.7 GL086710E27937N Koshi Dudh Koshi 0.0465      4701 I(s)  Nepal  
## 10 247      NA     28.0      86.7 GL086737E27975N Koshi Dudh Koshi 0.0333      5356 M(e)  Nepal  
## # ℹ 339 more rows
## # ℹ 1 more variable: geometry <POLYGON>
```
…
